{
  "variables": {
      "debian_version": "<DEBIAN_VERSION>"
  },
  "builders": [
    {
      "type": "virtualbox-iso",
      "boot_command": [
        "<esc><wait>",
        "install <wait>",
        "preseed/url=http://{{ .HTTPIP }}:{{ .HTTPPort }}/preseed.cfg <wait>",
        "debian-installer=en_US <wait>",
        "auto <wait>",
        "locale=en_US <wait>",
        "kbd-chooser/method=us <wait>",
        "keyboard-configuration/xkb-keymap=us <wait>",
        "netcfg/get_hostname={{ .Name }} <wait>",
        "netcfg/get_domain=vagrantup.com <wait>",
        "fb=false <wait>",
        "debconf/frontend=noninteractive <wait>",
        "console-setup/ask_detect=false <wait>",
        "console-keymaps-at/keymap=us <wait>",
        "<enter><wait>"
      ],
      "boot_wait": "10s",
      "disk_size": 16384,
      "guest_os_type": "Debian_64",
      "headless": true,
      "http_directory": "http",
      "iso_checksum_type": "sha512",
      "iso_checksum_url": "http://cdimage.debian.org/cdimage/release/{{user `debian_version`}}/amd64/iso-cd/SHA512SUMS",
      "iso_url": "http://cdimage.debian.org/cdimage/release/{{user `debian_version`}}/amd64/iso-cd/debian-{{user `debian_version`}}-amd64-netinst.iso",
      "ssh_username": "vagrant",
      "ssh_password": "vagrant",
      "ssh_port": 22,
      "ssh_wait_timeout": "10000s",
      "shutdown_command": "echo 'vagrant'|sudo -S /sbin/shutdown -hP now",
      "guest_additions_path": "VBoxGuestAdditions_{{.Version}}.iso",
      "virtualbox_version_file": ".vbox_version",
      "vm_name": "<VIRTUALBOX_NAME>",
      "vboxmanage": [
        [ "modifyvm", "{{.Name}}", "--memory", "1024" ],
        [ "modifyvm", "{{.Name}}", "--cpus", "1" ]
      ]
    }
  ],
  "post-processors": [
    {
      "type": "vagrant",
      "compression_level": "9",
      "output": "<BOX_FILE>",
      "only": ["virtualbox-iso"]
    }
  ],
  "provisioners": [
    {
      "type": "shell",
      "execute_command": "echo 'vagrant' | {{.Vars}} sudo -E -S bash '{{.Path}}'",
      "scripts": [
        "scripts/update.sh",
        "scripts/sshd.sh",
        "scripts/sudoers.sh",
        "scripts/vagrant.sh",
        "scripts/vbaddguest.sh"
      ],
      "only": ["virtualbox-iso"]
    }
  ]
}
